%!PS-Adobe-2.0

/rect {
  newpath
  /$h exch def
  /$w exch def
  /$y exch def
  /$x exch def
  $x $y moveto
  0 $h rlineto
  $w 0 rlineto
  0 0 $h sub rlineto
  0 $w sub 0 rlineto
  closepath stroke
} def

100 100 100 100 rect 
