%!PS-Adobe-2.0
%This is auto-generated file by ocaml
0.1 setlinewidth

/neg { -1 mul } def

/circle {
	newpath
	/$r exch def
	/$y exch def
	/$x exch def
	$x $y $r 0 360 arc 
	closepath stroke
} def


/rect {
	newpath
	/$h exch def
	/$w exch def
	/$y exch def
	/$x exch def
	$x $y moveto
	0 $h rlineto
	$w 0 rlineto
	0 $h neg rlineto
	$w neg 0 rlineto
	closepath stroke
} def

/init 0. def
/step 10. def
/stop 5. step mul def
init step stop {
/i exch def
0. 20. 60. {
/j exch def
i 100. add j 400. add 3. 5. rect
} for
} for



showpage
