%!PS-Adobe-2.0
%This is auto-generated file by ocaml
0.1 setlinewidth

/neg { -1 mul } def

/circle {
	newpath
	/$r exch def
	/$y exch def
	/$x exch def
	$x $y $r 0 360 arc 
	closepath stroke
} def


/rect {
	newpath
	/$h exch def
	/$w exch def
	/$y exch def
	/$x exch def
	$x $y moveto
	0 $h rlineto
	$w 0 rlineto
	0 $h neg rlineto
	$w neg 0 rlineto
	closepath stroke
} def

/x 10. def
/y 20. def
0. 20. 100. {
/i exch def
/x x i add  def
/y y i add  def
x y 3. 5. rect
} for



showpage
